Tabular Data
…
[1]  TRUE  TRUE FALSE  TRUE

c("a", "b", "c") == "b"

[1] FALSE  TRUE FALSE

Equality on strings

You can use == to test whether a string variable matches given text

But remember to quote the text you want to compare to

filter(sleep, occupation == "Teacher")

# A tibble: 40 × 13
   person_id gender   age occupation sleep_duration quality_of_sleep
       <dbl> <chr>  <dbl> <chr>               <dbl>            <dbl>
 1         7 Male      29 Teacher               6.3                6
 2        83 Male      35 Teacher               6.7                7
 3        84 Male      35 Teacher               6.7                7
 4        99 Female    36 Teacher               7.1                8
 5       100 Female    36 Teacher               7.1                8
 6       101 Female    36 Teacher               7.2                8
 7       102 Female    36 Teacher               7.2                8
 8       103 Female    36 Teacher               7.2                8
 9       104 Male      36 Teacher               6.6                5
10       105 Female    36 Teacher               7.2                8
# ℹ 30 more rows
# ℹ 7 more variables: physical_activity_level <dbl>, stress_level <dbl>,
#   bmi_category <chr>, blood_pressure <chr>, heart_rate <dbl>,
#   daily_steps <dbl>, sleep_disorder <chr>

why doesn’t occupation == Teacher work?

why doesn’t occupation == "teacher" work?

Filtering on computed values

The condition can contain computed values

filter(sleep, sleep_duration + quality_of_sleep > 10)

# A tibble: 368 × 13
   person_id gender   age occupation        sleep_duration quality_of_sleep
       <dbl> <chr>  <dbl> <chr>                      <dbl>            <dbl>
 1         1 Male      27 Software Engineer            6.1                6
 2         2 Male      28 Doctor                       6.2                6
 3         3 Male      28 Doctor                       6.2                6
 4         7 Male      29 Teacher                      6.3                6
 5         8 Male      29 Doctor                       7.8                7
 6         9 Male      29 Doctor                       7.8                7
 7        10 Male      29 Doctor                       7.8                7
 8        11 Male      29 Doctor                       6.1                6
 9        12 Male      29 Doctor                       7.8                7
10        13 Male      29 Doctor                       6.1                6
# ℹ 358 more rows
# ℹ 7 more variables: physical_activity_level <dbl>, stress_level <dbl>,
#   bmi_category <chr>, blood_pressure <chr>, heart_rate <dbl>,
#   daily_steps <dbl>, sleep_disorder <chr>
Note that we didn’t actually do anything to change the values in the data

The values in the sleep duration and quality of sleep columns remain the same as before, and no new column was created (stay tuned!)

Exercise [together]

Filter the sleep data to include only individuals with normal BMI

Logical conjunctions (AND)

Previously, we only passed one constraint into our filter() function. What happens if I am interested in more than one constraint?

filter(sleep, quality_of_sleep >=8 & stress_level <= 3)

# A tibble: 70 × 13
   person_id gender   age occupation sleep_duration quality_of_sleep
       <dbl> <chr>  <dbl> <chr>               <dbl>            <dbl>
 1        51 Male      32 Engineer              7.5                8
 2        52 Male      32 Engineer              7.5                8
 3       150 Female    39 Accountant            8                  9
 4       151 Female    39 Accountant            8                  9
 5       277 Male      49 Doctor                8.1                9
 6       278 Male      49 Doctor                8.1                9
 7       280 Female    50 Engineer              8.3                9
 8       299 Female    51 Engineer              8.5                9
 9       300 Female    51 Engineer              8.5                9
10       301 Female    51 Engineer              8.5                9
# ℹ 60 more rows
# ℹ 7 more variables: physical_activity_level <dbl>, stress_level <dbl>,
#   bmi_category <chr>, blood_pressure <chr>, heart_rate <dbl>,
#   daily_steps <dbl>, sleep_disorder <chr>
…
[1] FALSE

TRUE & TRUE

[1] TRUE

FALSE & TRUE

[1] FALSE

Logical conjunctions (OR)

filter(sleep, occupation == "Teacher" | occupation == "Lawyer")

# A tibble: 87 × 13
   person_id gender   age occupation sleep_duration quality_of_sleep
       <dbl> <chr>  <dbl> <chr>               <dbl>            <dbl>
 1         7 Male      29 Teacher               6.3                6
 2        83 Male      35 Teacher               6.7                7
 3        84 Male      35 Teacher               6.7                7
 4        94 Male      35 Lawyer                7.4                7
 5        99 Female    36 Teacher               7.1                8
 6       100 Female    36 Teacher               7.1                8
 7       101 Female    36 Teacher               7.2                8
 8       102 Female    36 Teacher               7.2                8
 9       103 Female    36 Teacher               7.2                8
10       104 Male      36 Teacher               6.6                5
# ℹ 77 more rows
# ℹ 7 more variables: physical_activity_level <dbl>, stress_level <dbl>,
#   bmi_category <chr>, blood_pressure <chr>, heart_rate <dbl>,
#   daily_steps <dbl>, sleep_disorder <chr>
…
[1] TRUE

TRUE | TRUE

[1] TRUE

FALSE | FALSE

[1] FALSE

Negation (NOT)

filter(sleep, !(occupation == "Teacher"))

# A tibble: 333 × 13
   person_id gender   age occupation           sleep_duration quality_of_sleep
       <dbl> <chr>  <dbl> <chr>                         <dbl>            <dbl>
 1         1 Male      27 Software Engineer               6.1                6
 2         2 Male      28 Doctor                          6.2                6
 3         3 Male      28 Doctor                          6.2                6
 4         4 Male      28 Sales Representative            5.9                4
 5         5 Male      28 Sales Representative            5.9                4
 6         6 Male      28 Software Engineer               5.9                4
 7         8 Male      29 Doctor                          7.8                7
 8         9 Male      29 Doctor                          7.8                7
 9        10 Male      29 Doctor                          7.8                7
10        11 Male      29 Doctor                          6.1                6
# ℹ 323 more rows
# ℹ 7 more variables: physical_activity_level <dbl>, stress_level <dbl>,
#   bmi_category <chr>, blood_pressure <chr>, heart_rate <dbl>,
#   daily_steps <dbl>, sleep_disorder <chr>
…
arrange() takes a data frame and a column, and sorts the rows by the values in that column (ascending order).

Again, the first argument is the data frame and the other arguments tell the function what to do with it

arrange(sleep, age)

# A tibble: 373 × 13
   person_id gender   age occupation           sleep_duration quality_of_sleep
       <dbl> <chr>  <dbl> <chr>                         <dbl>            <dbl>
 1         1 Male      27 Software Engineer               6.1                6
 2         2 Male      28 Doctor                          6.2                6
 3         3 Male      28 Doctor                          6.2                6
 4         4 Male      28 Sales Representative            5.9                4
 5         5 Male      28 Sales Representative            5.9                4
 6         6 Male      28 Software Engineer               5.9                4
 7         7 Male      29 Teacher                         6.3                6
 8         8 Male      29 Doctor                          7.8                7
 9         9 Male      29 Doctor                          7.8                7
10        10 Male      29 Doctor                          7.8                7
# ℹ 363 more rows
# ℹ 7 more variables: physical_activity_level <dbl>, stress_level <dbl>,
#   bmi_category <chr>, blood_pressure <chr>, heart_rate <dbl>,
#   daily_steps <dbl>, sleep_disorder <chr>

Descending sort

Use the desc function to arrange by descending values

arrange(sleep, desc(age))

# A tibble: 373 × 13
   person_id gender   age occupation sleep_duration quality_of_sleep
       <dbl> <chr>  <dbl> <chr>               <dbl>            <dbl>
 1       359 Female    59 Nurse                 8                  9
 2       360 Female    59 Nurse                 8.1                9
 3       361 Female    59 Nurse                 8.2                9
 4       362 Female    59 Nurse                 8.2                9
 5       363 Female    59 Nurse                 8.2                9
 6       364 Female    59 Nurse                 8.2                9
 7       365 Female    59 Nurse                 8                  9
 8       366 Female    59 Nurse                 8                  9
 9       367 Female    59 Nurse                 8.1                9
10       368 Female    59 Nurse                 8                  9
# ℹ 363 more rows
# ℹ 7 more variables: physical_activity_level <dbl>, stress_level <dbl>,
#   bmi_category <chr>, blood_pressure <chr>, heart_rate <dbl>,
#   daily_steps <dbl>, sleep_disorder <chr>

Multisort

This is useful if there is a tie in sorting by the first column, since the function will break the tie by looking at the second column.

arrange(sleep, desc(age), sleep_duration)

# A tibble: 373 × 13
   person_id gender   age occupation sleep_duration quality_of_sleep
       <dbl> <chr>  <dbl> <chr>               <dbl>            <dbl>
 1       359 Female    59 Nurse                 8                  9
 2       365 Female    59 Nurse                 8                  9
 3       366 Female    59 Nurse                 8                  9
 4       368 Female    59 Nurse                 8                  9
 5       371 Female    59 Nurse                 8                  9
 6       360 Female    59 Nurse                 8.1                9
 7       367 Female    59 Nurse                 8.1                9
 8       369 Female    59 Nurse                 8.1                9
 9       370 Female    59 Nurse                 8.1                9
10       372 Female    59 Nurse                 8.1                9
# ℹ 363 more rows
# ℹ 7 more variables: physical_activity_level <dbl>, stress_level <dbl>,
#   bmi_category <chr>, blood_pressure <chr>, heart_rate <dbl>,
#   daily_steps <dbl>, sleep_disorder <chr>
…
The select function will return a subset of the dataset, using only the requested columns in the order specified.

first argument is a data frame, then list the columns you want to select

select(sleep, occupation, sleep_duration)

# A tibble: 373 × 2
   occupation           sleep_duration
   <chr>                         <dbl>
 1 Software Engineer               6.1
 2 Doctor                          6.2
 3 Doctor                          6.2
 4 Sales Representative            5.9
 5 Sales Representative            5.9
 6 Software Engineer               5.9
 7 Teacher                         6.3
 8 Doctor                          7.8
 9 Doctor                          7.8
10 Doctor                          7.8
# ℹ 363 more rows

you can rename columns in the result with the syntax new_name = old_name

select(sleep, job = occupation, sleep_duration)

# A tibble: 373 × 2
   job                  sleep_duration
   <chr>                         <dbl>
 1 Software Engineer               6.1
 2 Doctor                          6.2
 3 Doctor                          6.2
 4 Sales Representative            5.9
 5 Sales Representative            5.9
 6 Software Engineer               5.9
 7 Teacher                         6.3
 8 Doctor                          7.8
 9 Doctor                          7.8
10 Doctor                          7.8
# ℹ 363 more rows

Negation

select() can also be used to select everything except for certain columns. You can think of this as removing those columns from the dataset

select(sleep, -person_id)

# A tibble: 373 × 12
   gender   age occupation           sleep_duration quality_of_sleep
   <chr>  <dbl> <chr>                         <dbl>            <dbl>
 1 Male      27 Software Engineer               6.1                6
 2 Male      28 Doctor                          6.2                6
 3 Male      28 Doctor                          6.2                6
 4 Male      28 Sales Representative            5.9                4
 5 Male      28 Sales Representative            5.9                4
 6 Male      28 Software Engineer               5.9                4
 7 Male      29 Teacher                         6.3                6
 8 Male      29 Doctor                          7.8                7
 9 Male      29 Doctor                          7.8                7
10 Male      29 Doctor                          7.8                7
# ℹ 363 more rows
# ℹ 7 more variables: physical_activity_level <dbl>, stress_level <dbl>,
#   bmi_category <chr>, blood_pressure <chr>, heart_rate <dbl>,
#   daily_steps <dbl>, sleep_disorder <chr>
…
mutate creates new columns

first argument is a dataframe, second specifies what you want the new columns to be

mutate(sleep, scaled_stress = 10*stress_level)

# A tibble: 373 × 14
   person_id gender   age occupation   sleep_duration stress_level scaled_stress
       <dbl> <chr>  <dbl> <chr>                 <dbl>        <dbl>         <dbl>
 1         1 Male      27 Software En…            6.1            6            60
 2         2 Male      28 Doctor                  6.2            8            80
 3         3 Male      28 Doctor                  6.2            8            80
 4         4 Male      28 Sales Repre…            5.9            8            80
 5         5 Male      28 Sales Repre…            5.9            8            80
 6         6 Male      28 Software En…            5.9            8            80
 7         7 Male      29 Teacher                 6.3            7            70
 8         8 Male      29 Doctor                  7.8            6            60
 9         9 Male      29 Doctor                  7.8            6            60
10        10 Male      29 Doctor                  7.8            6            60
# ℹ 363 more rows
# ℹ 7 more variables: quality_of_sleep <dbl>, physical_activity_level <dbl>,
#   bmi_category <chr>, blood_pressure <chr>, heart_rate <dbl>,
#   daily_steps <dbl>, sleep_disorder <chr>

This uses mutate() to add a new column to which is 10 times the value of stress_level

To the left of the = is a new column name that you want the new column to be called

To the right of the = defines what will go into the new column

Warning! If the new variable name already exists, mutate() will overwrite the existing one (in the resulting dataframe that gets created)

mutate(sleep, stress_level = 10*stress_level)

# A tibble: 373 × 13
   person_id gender   age occupation           sleep_duration stress_level
       <dbl> <chr>  <dbl> <chr>                         <dbl>        <dbl>
 1         1 Male      27 Software Engineer               6.1           60
 2         2 Male      28 Doctor                          6.2           80
 3         3 Male      28 Doctor                          6.2           80
 4         4 Male      28 Sales Representative            5.9           80
 5         5 Male      28 Sales Representative            5.9           80
 6         6 Male      28 Software Engineer               5.9           80
 7         7 Male      29 Teacher                         6.3           70
 8         8 Male      29 Doctor                          7.8           60
 9         9 Male      29 Doctor                          7.8           60
10        10 Male      29 Doctor                          7.8           60
# ℹ 363 more rows
# ℹ 7 more variables: quality_of_sleep <dbl>, physical_activity_level <dbl>,
#   bmi_category <chr>, blood_pressure <chr>, heart_rate <dbl>,
#   daily_steps <dbl>, sleep_disorder <chr>

mutate() can create multiple columns at the same time and use multiple columns to define a single new one

mutate(sleep,  # the newlines make it more readable
      scaled_stress = 10*stress_level,
      scaled_quality_sleep = 10*quality_of_sleep,
      scaled_diff = scaled_stress - scaled_quality_sleep
  )

# A tibble: 373 × 16
   person_id gender   age scaled_stress scaled_quality_sleep scaled_diff
       <dbl> <chr>  <dbl>         <dbl>                <dbl>       <dbl>
 1         1 Male      27            60                   60           0
 2         2 Male      28            80                   60          20
 3         3 Male      28            80                   60          20
 4         4 Male      28            80                   40          40
 5         5 Male      28            80                   40          40
 6         6 Male      28            80                   40          40
 7         7 Male      29            70                   60          10
 8         8 Male      29            60                   70         -10
 9         9 Male      29            60                   70         -10
10        10 Male      29            60                   70         -10
# ℹ 363 more rows
# ℹ 10 more variables: occupation <chr>, sleep_duration <dbl>,
#   quality_of_sleep <dbl>, physical_activity_level <dbl>, stress_level <dbl>,
#   bmi_category <chr>, blood_pressure <chr>, heart_rate <dbl>,
#   daily_steps <dbl>, sleep_disorder <chr>

Notice we used two columns simultaneously to create a new column

Indicators

mutate() can be used to make logical columns (indicators)

sleep_wdisorder <- mutate(sleep, has_sleep_disorder = !(sleep_disorder == "None"))
select(sleep_wdisorder, 
       has_sleep_disorder, sleep_disorder)

# A tibble: 373 × 2
   has_sleep_disorder sleep_disorder
   <lgl>              <chr>         
 1 FALSE              None          
 2 FALSE              None          
 3 FALSE              None          
 4 TRUE               Sleep Apnea   
 5 TRUE               Sleep Apnea   
 6 TRUE               Insomnia      
 7 TRUE               Insomnia      
 8 FALSE              None          
 9 FALSE              None          
10 FALSE              None          
# ℹ 363 more rows
…
