R Shiny Basics
…
subject connects to sample via a single variable, subject_id.

sample connects to batch through the batch_id variable.

An example join

Imagine we want to add subject information to the sample data

We can accomplish that with a join:

gtex_samples |> 
  inner_join(gtex_subjects, by = join_by(subject_id))

# A tibble: 312 × 9
   subject_id sample_id    batch_id center_id tissue rin_score sex   age   death
   <chr>      <chr>        <chr>    <chr>     <chr>      <dbl> <chr> <chr> <chr>
 1 GTEX-11DXZ 0003-SM-58Q… BP-39216 B1        Blood       NA   male  50-59 vent…
 2 GTEX-11DXZ 0126-SM-5EG… BP-44460 B1        Liver        7.9 male  50-59 vent…
 3 GTEX-11DXZ 0326-SM-5EG… BP-44460 B1        Heart        8.3 male  50-59 vent…
 4 GTEX-11DXZ 0726-SM-5N9… BP-43956 B1        Lung         7.8 male  50-59 vent…
 5 GTEX-11GSP 0004-SM-58Q… BP-39412 B1        Blood       NA   fema… 60-69 sudd…
 6 GTEX-11GSP 0626-SM-598… BP-44902 B1        Liver        6.2 fema… 60-69 sudd…
 7 GTEX-11GSP 0726-SM-598… BP-44902 B1        Lung         6.9 fema… 60-69 sudd…
 8 GTEX-11GSP 1226-SM-598… BP-44902 B1        Heart        7.9 fema… 60-69 sudd…
 9 GTEX-11NUK 0004-SM-58Q… BP-39723 B1        Blood       NA   male  50-59 sudd…
10 GTEX-11NUK 0826-SM-5HL… BP-43730 B1        Lung         7.4 male  50-59 sudd…
# ℹ 302 more rows
…
